12/02/09;40.30
13/02/09;40.90
16/02/09;40.415
17/02/09;39.01
18/02/09;39.50
19/02/09;39.43
20/02/09;37.75
23/02/09;38.06
24/02/09;37.81
25/02/09;37.975
26/02/09;38.14
27/02/09;37.48
02/03/09;35.325
03/03/09;34.55
04/03/09;37.63
05/03/09;35.57
06/03/09;35.99
09/03/09;35.965
10/03/09;37.56
11/03/09;37.675
12/03/09;37.725
13/03/09;37.88
16/03/09;38.18
17/03/09;37.83
18/03/09;37.22
19/03/09;38.00
20/03/09;37.94
23/03/09;38.35
24/03/09;38.20
25/03/09;38.87
26/03/09;38.915
27/03/09;38.45
30/03/09;36.47
31/03/09;37.425
01/04/09;36.94
02/04/09;38.90
03/04/09;37.685
06/04/09;37.00
07/04/09;36.565
08/04/09;36.42
09/04/09;37.06
14/04/09;36.34
15/04/09;35.965
16/04/09;35.80
17/04/09;36.28
20/04/09;35.14
21/04/09;35.61
22/04/09;35.805
23/04/09;36.595
24/04/09;38.345
27/04/09;38.25
28/04/09;38.09
29/04/09;38.445
30/04/09;38.345
04/05/09;39.275
05/05/09;39.15
06/05/09;39.75
07/05/09;40.10
08/05/09;41.02
11/05/09;40.625
12/05/09;40.89
13/05/09;41.05
14/05/09;40.36
15/05/09;40.47
18/05/09;41.95
19/05/09;40.87
20/05/09;41.20
21/05/09;39.81
22/05/09;39.685
25/05/09;39.48
26/05/09;40.03
27/05/09;40.24
28/05/09;40.07
29/05/09;40.75
01/06/09;41.92
02/06/09;41.88
03/06/09;40.64
04/06/09;41.19
05/06/09;41.595
08/06/09;41.19
09/06/09;41.30
10/06/09;41.61
11/06/09;41.55
12/06/09;40.675
15/06/09;39.44
16/06/09;39.595
17/06/09;38.73
18/06/09;38.95
19/06/09;39.18
22/06/09;37.88
23/06/09;37.80
24/06/09;38.50
25/06/09;38.04
26/06/09;38.01
29/06/09;38.97
30/06/09;38.48
01/07/09;39.25
02/07/09;37.77
03/07/09;37.715
06/07/09;36.95
07/07/09;36.495
08/07/09;36.21
09/07/09;36.60
10/07/09;35.985
13/07/09;36.775
14/07/09;37.09
15/07/09;37.865
16/07/09;38.03
17/07/09;38.60
20/07/09;39.14
21/07/09;39.805
22/07/09;39.79
23/07/09;40.39
24/07/09;40.19
27/07/09;40.47
28/07/09;39.35
29/07/09;39.52
30/07/09;39.99
31/07/09;38.91
03/08/09;38.89
04/08/09;38.615
05/08/09;38.325
06/08/09;38.40
07/08/09;38.40
10/08/09;38.02
11/08/09;37.785
12/08/09;38.66
13/08/09;38.33
14/08/09;38.14
17/08/09;37.305
18/08/09;37.83
19/08/09;37.80
20/08/09;38.75
21/08/09;39.76
24/08/09;40.09
25/08/09;40.39
26/08/09;40.03
27/08/09;40.20
28/08/09;40.31
31/08/09;39.97
01/09/09;39.25
02/09/09;39.88
03/09/09;39.475
04/09/09;40.21
07/09/09;40.22
08/09/09;40.815
09/09/09;41.695
10/09/09;41.75
11/09/09;41.785
14/09/09;41.645
15/09/09;41.615
16/09/09;41.50
17/09/09;41.655
18/09/09;41.645
21/09/09;41.685
22/09/09;42.07
23/09/09;41.495
24/09/09;40.10
25/09/09;39.97
28/09/09;40.87
29/09/09;40.765
30/09/09;40.605
01/10/09;39.93
02/10/09;39.32
05/10/09;39.15
06/10/09;40.285
07/10/09;39.96
08/10/09;40.13
09/10/09;40.33
12/10/09;40.99
13/10/09;40.72
14/10/09;41.92
15/10/09;41.865
16/10/09;42.15
19/10/09;42.71
20/10/09;42.595
21/10/09;42.82
22/10/09;42.495
23/10/09;42.33
26/10/09;41.86
27/10/09;42.60
28/10/09;41.945
29/10/09;42.00
30/10/09;40.635
02/11/09;41.15
03/11/09;40.955
04/11/09;41.635
05/11/09;42.14
06/11/09;42.015
09/11/09;42.91
10/11/09;42.925
11/11/09;43.19
12/11/09;42.995
13/11/09;42.165
16/11/09;42.84
17/11/09;42.60
18/11/09;42.49
19/11/09;42.025
20/11/09;41.445
23/11/09;42.70
24/11/09;42.565
25/11/09;42.605
26/11/09;41.565
27/11/09;41.865
30/11/09;41.21
01/12/09;42.22
02/12/09;42.39
03/12/09;42.65
04/12/09;43.165
07/12/09;43.115
08/12/09;42.51
09/12/09;42.33
10/12/09;42.78
11/12/09;43.025
14/12/09;43.27
15/12/09;43.485
16/12/09;43.92
17/12/09;43.31
18/12/09;42.52
21/12/09;43.85
22/12/09;44.61
23/12/09;44.88
24/12/09;45.00
28/12/09;45.37
29/12/09;45.41
30/12/09;45.025
31/12/09;45.005
04/01/10;45.795
05/01/10;45.85
06/01/10;45.88
07/01/10;45.96
08/01/10;46.01
11/01/10;46.26
12/01/10;45.65
13/01/10;45.155
14/01/10;44.87
15/01/10;43.805
18/01/10;44.54
19/01/10;45.06
20/01/10;44.39
21/01/10;43.85
22/01/10;43.205
25/01/10;42.74
26/01/10;42.885
27/01/10;42.31
28/01/10;41.215
29/01/10;42.05
01/02/10;42.195
02/02/10;42.45
03/02/10;42.34
04/02/10;41.57
05/02/10;40.13
08/02/10;40.89
09/02/10;40.53
10/02/10;40.92
11/02/10;41.545
12/02/10;41.625
15/02/10;41.705
16/02/10;42.51
17/02/10;42.63
18/02/10;43.00
19/02/10;42.99
22/02/10;42.675
23/02/10;41.98
24/02/10;41.795
25/02/10;40.445
26/02/10;40.98
01/03/10;41.36
02/03/10;41.61
03/03/10;41.76
04/03/10;41.55
05/03/10;42.41
08/03/10;42.26
09/03/10;42.525
10/03/10;42.93
11/03/10;42.925
12/03/10;42.70
15/03/10;42.35
16/03/10;42.615
17/03/10;42.805
18/03/10;42.56
19/03/10;42.34
22/03/10;42.385
23/03/10;42.49
24/03/10;42.435
25/03/10;42.675
26/03/10;42.76
29/03/10;42.705
30/03/10;42.88
31/03/10;42.98
01/04/10;43.64
06/04/10;44.38
07/04/10;43.91
08/04/10;43.59
09/04/10;44.37
12/04/10;43.98
13/04/10;43.495
14/04/10;43.505
15/04/10;43.73
16/04/10;42.985
19/04/10;42.875
20/04/10;43.74
21/04/10;43.165
22/04/10;42.425
23/04/10;42.61
26/04/10;42.68
27/04/10;41.555
28/04/10;41.25
29/04/10;42.04
30/04/10;40.97
03/05/10;41.16
04/05/10;39.52
05/05/10;39.47
06/05/10;38.695
07/05/10;37.37
10/05/10;40.23
11/05/10;39.935
12/05/10;40.085
13/05/10;40.10
14/05/10;38.425
17/05/10;38.51
18/05/10;39.30
19/05/10;38.35
20/05/10;37.715
21/05/10;37.60
24/05/10;37.54
25/05/10;37.05
26/05/10;37.595
27/05/10;38.31
28/05/10;38.135
31/05/10;37.73
01/06/10;37.955
02/06/10;37.865
03/06/10;39.03
04/06/10;38.185
07/06/10;37.965
08/06/10;37.66
09/06/10;38.11
10/06/10;38.265
11/06/10;38.70
14/06/10;39.59
15/06/10;39.87
16/06/10;40.355
17/06/10;40.455
18/06/10;40.185
21/06/10;40.725
22/06/10;40.07
23/06/10;39.245
24/06/10;38.435
25/06/10;37.88
28/06/10;38.13
29/06/10;36.76
30/06/10;36.965
01/07/10;35.88
02/07/10;36.19
05/07/10;36.01
06/07/10;36.64
07/07/10;37.21
08/07/10;38.04
09/07/10;38.295
12/07/10;38.40
13/07/10;39.105
14/07/10;39.02
15/07/10;38.765
16/07/10;38.045
19/07/10;37.77
20/07/10;37.73
21/07/10;37.46
22/07/10;38.04
23/07/10;38.14
26/07/10;38.30
27/07/10;38.395
28/07/10;38.555
29/07/10;38.35
30/07/10;38.71
02/08/10;39.91
03/08/10;39.89
04/08/10;40.25
05/08/10;40.545
06/08/10;40.01
09/08/10;40.81
10/08/10;40.12
11/08/10;39.06
12/08/10;39.07
13/08/10;39.03
16/08/10;38.795
17/08/10;39.355
18/08/10;39.01
19/08/10;38.075
20/08/10;37.77
23/08/10;38.025
24/08/10;37.40
25/08/10;36.975
26/08/10;36.995
27/08/10;37.065
30/08/10;36.75
31/08/10;36.87
01/09/10;38.145
02/09/10;38.18
03/09/10;38.79
06/09/10;38.89
07/09/10;38.30
08/09/10;38.655
09/09/10;39.09
10/09/10;39.005
13/09/10;39.355
14/09/10;39.425
15/09/10;38.785
16/09/10;38.64
17/09/10;37.855
20/09/10;38.905
21/09/10;38.575
22/09/10;37.845
23/09/10;37.77
24/09/10;38.04
27/09/10;38.00
28/09/10;38.00
29/09/10;37.95
30/09/10;37.805
01/10/10;38.075
04/10/10;37.53
05/10/10;38.32
06/10/10;38.685
07/10/10;38.51
08/10/10;38.46
11/10/10;38.405
12/10/10;37.995
13/10/10;38.90
14/10/10;38.905
15/10/10;39.19
18/10/10;39.53
19/10/10;38.865
20/10/10;39.04
21/10/10;39.135
22/10/10;39.17
25/10/10;39.05
26/10/10;39.125
27/10/10;38.60
28/10/10;39.06
29/10/10;39.045
01/11/10;39.25
02/11/10;39.85
03/11/10;39.575
04/11/10;40.62
05/11/10;40.585
08/11/10;40.455
09/11/10;41.125
10/11/10;40.75
11/11/10;40.835
12/11/10;39.47
15/11/10;39.77
16/11/10;38.45
17/11/10;38.595
18/11/10;39.02
19/11/10;38.79
22/11/10;38.395
23/11/10;37.77
24/11/10;37.925
25/11/10;37.97
26/11/10;37.735
29/11/10;37.10
30/11/10;37.315
01/12/10;37.62
02/12/10;38.035
03/12/10;38.06
06/12/10;38.435
07/12/10;39.01
08/12/10;39.12
09/12/10;39.42
10/12/10;39.245
13/12/10;39.765
14/12/10;40.09
15/12/10;39.92
16/12/10;39.905
17/12/10;39.77
20/12/10;39.955
21/12/10;40.55
22/12/10;40.51
23/12/10;40.505
24/12/10;40.465
27/12/10;39.995
28/12/10;40.035
29/12/10;40.54
30/12/10;40.12
31/12/10;39.65
03/01/11;40.59
04/01/11;41.13
05/01/11;41.29
06/01/11;41.55
07/01/11;41.22
10/01/11;40.69
11/01/11;41.04
12/01/11;41.74
13/01/11;42.00
14/01/11;42.40
17/01/11;42.155
18/01/11;42.50
19/01/11;42.20
20/01/11;41.945
21/01/11;42.525
24/01/11;42.905
25/01/11;42.62
26/01/11;43.00
27/01/11;43.215
28/01/11;42.325
31/01/11;42.715
01/02/11;44.08
02/02/11;44.00
03/02/11;43.55
04/02/11;43.52
07/02/11;43.585
08/02/11;43.63
09/02/11;43.00
10/02/11;43.475
11/02/11;43.445
